<?xml version="1.0" encoding="utf-8"?>
<!-- Generator: Adobe Illustrator 19.0.0, SVG Export Plug-In . SVG Version: 6.00 Build 0)  -->
<svg version="1.1" id="Capa_1" xmlns="http://www.w3.org/2000/svg" xmlns:xlink="http://www.w3.org/1999/xlink" x="0px" y="0px"
	 viewBox="-28 -17.406 338 642" enable-background="new -28 -17.406 338 642" xml:space="preserve">
<path fill="#FFFFFF" d="M192.326,624.594H72.032v-321H-8.217V192.968l80.249-0.036l-0.13-65.173
	c0-90.252,24.473-145.165,130.782-145.165h88.511V93.241h-55.316c-41.399,0-43.39,15.457-43.39,44.315l-0.164,55.376h99.491
	l-11.728,110.626l-87.68,0.037L192.326,624.594z"/>
</svg>
