<?xml version="1.0" encoding="utf-8"?>
<!-- Generator: Adobe Illustrator 19.0.0, SVG Export Plug-In . SVG Version: 6.00 Build 0)  -->
<svg version="1.1" id="Layer_1" xmlns="http://www.w3.org/2000/svg" xmlns:xlink="http://www.w3.org/1999/xlink" x="0px" y="0px"
	 viewBox="0 0 100 100" style="enable-background:new 0 0 100 100;" xml:space="preserve">
<style type="text/css">
	.st0{fill:#FFFFFF;}
</style>
<g>
	<path class="st0" d="M81.3,12.5H18.8C8.4,12.5,0,21,0,31.3v37.5c0,10.3,8.4,18.8,18.8,18.8h62.5c10.3,0,18.8-8.4,18.8-18.8V31.3
		C100,21,91.6,12.5,81.3,12.5L81.3,12.5z M37.5,75V25l31.3,25L37.5,75z"/>
</g>
</svg>
